…
We also need to load the CSV with the longitude and latitude for the Healthy Ride stations

data_station_locations <- read_csv("https://raw.githubusercontent.com/conorotompkins/healthy_ride/master/data/stations/station_locations.csv")

(df_station_totals <- data_long %>% 
  group_by(station_name) %>% 
  summarize(number_of_trips = n()) %>% 
  arrange(desc(number_of_trips), station_name) %>% 
  left_join(data_station_locations) %>% 
  select(station_name, number_of_trips, longitude, latitude))

## # A tibble: 98 x 4
##                                                station_name
##                                                       <chr>
##  1                 S 27th St & Sidney St. (Southside Works)
##  2                                 Liberty Ave & Stanwix St
##  3                               Forbes Ave & Market Square
##  4                                       21st St & Penn Ave
##  5                                       21st St & Penn Ave
##  6 10th St & Penn Ave (David L. Lawrence Convention Center)
##  7                 North Shore Trail & Fort Duquesne Bridge
##  8                      Isabella St & Federal St (PNC Park)
##  9                                  S 12th St & E Carson St
## 10                                  S 12th St & E Carson St
## # ... with 88 more rows, and 3 more variables: number_of_trips <int>,
## #   longitude <dbl>, latitude <dbl>
…
