Analyzing Allegheny County Overdose Data
…
#identify top 10 OD factors
df %>%
  select(id, date, starts_with("od_")) %>% 
  gather(od_factor, od_flag, starts_with("od_"))

## # A tibble: 3,407 x 4
##       id date       od_factor  od_flag                                    
##    <int> <date>     <chr>      <chr>                                      
##  1     1 2008-01-03 od_factors Alcohol, Codeine, Morphine                 
##  2     2 2008-01-03 od_factors Mephobarbital, Morphine, Phenobarbital     
##  3     3 2008-01-04 od_factors Alcohol, Methadone, Nordiazepam            
##  4     4 2008-01-04 od_factors Alprazolam, Methadone, Nordiazepam         
##  5     5 2008-01-05 od_factors Alcohol, Morphine                          
##  6     6 2008-01-05 od_factors Diphenhydramine, Morphine, Paroxetine, Tra~
##  7     7 2008-01-06 od_factors Morphine                                   
##  8     8 2008-01-06 od_factors Cocaine, Morphine                          
##  9     9 2008-01-09 od_factors Cocaine                                    
## 10    10 2008-01-10 od_factors Alprazolam, Cyclobenzaprine, Diphenhydrami~
## # ... with 3,397 more rows
…
